{
    "/cliente/cliente": {
        "target": "http://localhost:8080",
        "secure": false
    },
    "/camarero/camarero": {
        "target": "http://localhost:8080",
        "secure": false
    },
    "/cocinero/cocinero": {
        "target": "http://localhost:8080",
        "secure": false
    },
    "/mesa/mesa": {
        "target": "http://localhost:8080",
        "secure": false
    },
    "/factura/factura": {
        "target": "http://localhost:8080",
        "secure": false
    }
}
